EESchema Schematic File Version 2
LIBS:power
LIBS:MyKiCadLibs-Lib
LIBS:DACTwo-cache
EELAYER 25 0
EELAYER END
$Descr A4 11693 8268
encoding utf-8
Sheet 5 6
Title "DACOne - ADAU1966 with Passive Output Filters"
Date "2017-05-21"
Rev "3.0"
Comp "Open Hardware DSP Platform - www.ohdsp.org"
Comment1 "MERCHANTABILITY, SATISFACTORY QUALITY AND FITNESS FOR A PARTICULAR PURPOSE."
Comment2 "is distributed WITHOUT ANY EXPRESS OR IMPLIED WARRANTY, INCLUDING OF "
Comment3 "Licensed under the TAPR Open Hardware License (www.tapr.org/OHL). This documentation"
Comment4 "Copyright Paul Janicki 2017"
$EndDescr
Text HLabel 2600 1850 0    60   Input ~ 0
P1
Text HLabel 2600 2700 0    60   Input ~ 0
N1
$Comp
L GNDA #PWR064
U 1 1 563051ED
P 3600 2250
AR Path="/5633C57F/563051ED" Ref="#PWR064"  Part="1" 
AR Path="/59C6C1D7/563051ED" Ref="#PWR052"  Part="1" 
AR Path="/59C6D672/563051ED" Ref="#PWR052"  Part="1" 
F 0 "#PWR064" H 3600 2000 50  0001 C CNN
F 1 "GNDA" H 3600 2100 50  0000 C CNN
F 2 "" H 3600 2250 60  0000 C CNN
F 3 "" H 3600 2250 60  0000 C CNN
	1    3600 2250
	1    0    0    -1  
$EndComp
Text HLabel 2600 2900 0    60   Input ~ 0
P2
Text HLabel 2600 3750 0    60   Input ~ 0
N2
$Comp
L GNDA #PWR065
U 1 1 563A7485
P 3600 3300
AR Path="/5633C57F/563A7485" Ref="#PWR065"  Part="1" 
AR Path="/59C6C1D7/563A7485" Ref="#PWR053"  Part="1" 
AR Path="/59C6D672/563A7485" Ref="#PWR053"  Part="1" 
F 0 "#PWR065" H 3600 3050 50  0001 C CNN
F 1 "GNDA" H 3600 3150 50  0000 C CNN
F 2 "" H 3600 3300 60  0000 C CNN
F 3 "" H 3600 3300 60  0000 C CNN
	1    3600 3300
	1    0    0    -1  
$EndComp
Text HLabel 2600 3950 0    60   Input ~ 0
P3
Text HLabel 2600 4800 0    60   Input ~ 0
N3
$Comp
L GNDA #PWR066
U 1 1 563A77DD
P 3600 4350
AR Path="/5633C57F/563A77DD" Ref="#PWR066"  Part="1" 
AR Path="/59C6C1D7/563A77DD" Ref="#PWR054"  Part="1" 
AR Path="/59C6D672/563A77DD" Ref="#PWR054"  Part="1" 
F 0 "#PWR066" H 3600 4100 50  0001 C CNN
F 1 "GNDA" H 3600 4200 50  0000 C CNN
F 2 "" H 3600 4350 60  0000 C CNN
F 3 "" H 3600 4350 60  0000 C CNN
	1    3600 4350
	1    0    0    -1  
$EndComp
Text HLabel 2600 5000 0    60   Input ~ 0
P4
Text HLabel 2600 5850 0    60   Input ~ 0
N4
$Comp
L GNDA #PWR067
U 1 1 563A7826
P 3600 5400
AR Path="/5633C57F/563A7826" Ref="#PWR067"  Part="1" 
AR Path="/59C6C1D7/563A7826" Ref="#PWR055"  Part="1" 
AR Path="/59C6D672/563A7826" Ref="#PWR055"  Part="1" 
F 0 "#PWR067" H 3600 5150 50  0001 C CNN
F 1 "GNDA" H 3600 5250 50  0000 C CNN
F 2 "" H 3600 5400 60  0000 C CNN
F 3 "" H 3600 5400 60  0000 C CNN
	1    3600 5400
	1    0    0    -1  
$EndComp
Text HLabel 6650 1850 0    60   Input ~ 0
P5
Text HLabel 6650 2700 0    60   Input ~ 0
N5
Text HLabel 6650 2900 0    60   Input ~ 0
P6
Text HLabel 6650 3750 0    60   Input ~ 0
N6
Text HLabel 6650 3950 0    60   Input ~ 0
P7
Text HLabel 6650 4800 0    60   Input ~ 0
N7
Text HLabel 6650 5000 0    60   Input ~ 0
P8
Text HLabel 6650 5850 0    60   Input ~ 0
N8
Wire Wire Line
	3200 1850 3350 1850
Connection ~ 3250 1850
Wire Wire Line
	3200 2700 3350 2700
Wire Wire Line
	3250 1850 3250 2000
Wire Wire Line
	3250 2700 3250 2400
Wire Wire Line
	2600 2700 2700 2700
Wire Wire Line
	2700 1850 2600 1850
Connection ~ 3250 2700
Wire Wire Line
	3400 2050 3400 2550
Wire Wire Line
	3400 2150 3600 2150
Wire Wire Line
	3600 2150 3600 2250
Connection ~ 3400 2150
Wire Wire Line
	3400 2050 3450 2050
Wire Wire Line
	3400 2550 3450 2550
Wire Wire Line
	3850 2700 4500 2700
Wire Wire Line
	4000 2700 4000 2550
Wire Wire Line
	4000 2550 3950 2550
Wire Wire Line
	3850 1850 4600 1850
Wire Wire Line
	4000 1850 4000 2050
Wire Wire Line
	4000 2050 3950 2050
Wire Wire Line
	3200 2900 3350 2900
Connection ~ 3250 2900
Wire Wire Line
	3200 3750 3350 3750
Wire Wire Line
	3250 2900 3250 3050
Wire Wire Line
	3250 3750 3250 3450
Wire Wire Line
	2600 3750 2700 3750
Wire Wire Line
	2700 2900 2600 2900
Connection ~ 3250 3750
Wire Wire Line
	3400 3100 3400 3600
Wire Wire Line
	3400 3200 3600 3200
Wire Wire Line
	3600 3200 3600 3300
Connection ~ 3400 3200
Wire Wire Line
	3400 3100 3450 3100
Wire Wire Line
	3400 3600 3450 3600
Wire Wire Line
	4000 3600 4000 3850
Wire Wire Line
	4000 3600 3950 3600
Wire Wire Line
	3850 2900 4400 2900
Wire Wire Line
	4000 2900 4000 3100
Wire Wire Line
	4000 3100 3950 3100
Wire Wire Line
	3200 3950 3350 3950
Connection ~ 3250 3950
Wire Wire Line
	3200 4800 3350 4800
Wire Wire Line
	3250 3950 3250 4100
Wire Wire Line
	3250 4800 3250 4500
Wire Wire Line
	2600 4800 2700 4800
Wire Wire Line
	2700 3950 2600 3950
Connection ~ 3250 4800
Wire Wire Line
	3400 4150 3400 4650
Wire Wire Line
	3400 4250 3600 4250
Wire Wire Line
	3600 4250 3600 4350
Connection ~ 3400 4250
Wire Wire Line
	3400 4150 3450 4150
Wire Wire Line
	3400 4650 3450 4650
Wire Wire Line
	3850 4800 4000 4800
Wire Wire Line
	4000 4800 4000 4650
Wire Wire Line
	3950 4650 4400 4650
Wire Wire Line
	3850 3950 4900 3950
Wire Wire Line
	4000 3950 4000 4150
Wire Wire Line
	4000 4150 3950 4150
Wire Wire Line
	3200 5000 3350 5000
Connection ~ 3250 5000
Wire Wire Line
	3200 5850 3350 5850
Wire Wire Line
	3250 5000 3250 5150
Wire Wire Line
	3250 5850 3250 5550
Wire Wire Line
	2600 5850 2700 5850
Wire Wire Line
	2700 5000 2600 5000
Connection ~ 3250 5850
Wire Wire Line
	3400 5200 3400 5700
Wire Wire Line
	3400 5300 3600 5300
Wire Wire Line
	3600 5300 3600 5400
Connection ~ 3400 5300
Wire Wire Line
	3400 5200 3450 5200
Wire Wire Line
	3400 5700 3450 5700
Wire Wire Line
	3850 5850 4600 5850
Wire Wire Line
	4000 5850 4000 5700
Wire Wire Line
	4000 5700 3950 5700
Wire Wire Line
	3850 5000 4500 5000
Wire Wire Line
	4000 5000 4000 5200
Wire Wire Line
	4000 5200 3950 5200
Wire Wire Line
	6650 2700 6750 2700
Wire Wire Line
	6750 1850 6650 1850
Wire Wire Line
	6650 3750 6750 3750
Wire Wire Line
	6750 2900 6650 2900
Wire Wire Line
	6650 4800 6750 4800
Wire Wire Line
	6750 3950 6650 3950
Wire Wire Line
	6650 5850 6750 5850
Wire Wire Line
	6750 5000 6650 5000
Wire Wire Line
	4600 1850 4600 3550
Connection ~ 4000 1850
Wire Wire Line
	4500 2700 4500 3650
Connection ~ 4000 2700
Wire Wire Line
	4400 2900 4400 3750
Connection ~ 4000 2900
Connection ~ 4000 3750
Wire Wire Line
	4900 4250 4600 4250
Wire Wire Line
	4600 4250 4600 5850
Connection ~ 4000 5850
Wire Wire Line
	4900 4150 4500 4150
Wire Wire Line
	4500 4150 4500 5000
Connection ~ 4000 5000
Wire Wire Line
	4900 4050 4400 4050
Wire Wire Line
	4400 4050 4400 4650
Connection ~ 4000 4650
Connection ~ 4000 3950
Wire Wire Line
	4000 3850 4900 3850
Wire Wire Line
	3850 3750 4000 3750
Wire Wire Line
	4400 3750 4900 3750
Wire Wire Line
	4500 3650 4900 3650
Wire Wire Line
	4600 3550 4900 3550
$Comp
L GNDA #PWR068
U 1 1 563AD1EC
P 4800 4450
AR Path="/5633C57F/563AD1EC" Ref="#PWR068"  Part="1" 
AR Path="/59C6C1D7/563AD1EC" Ref="#PWR056"  Part="1" 
AR Path="/59C6D672/563AD1EC" Ref="#PWR056"  Part="1" 
F 0 "#PWR068" H 4800 4200 50  0001 C CNN
F 1 "GNDA" H 4800 4300 50  0000 C CNN
F 2 "" H 4800 4450 60  0000 C CNN
F 3 "" H 4800 4450 60  0000 C CNN
	1    4800 4450
	1    0    0    -1  
$EndComp
Wire Wire Line
	4800 3450 4800 4450
Wire Wire Line
	4800 4350 4900 4350
Wire Wire Line
	4800 3450 4900 3450
Connection ~ 4800 4350
$Comp
L GNDA #PWR069
U 1 1 563AD4A5
P 5500 4450
AR Path="/5633C57F/563AD4A5" Ref="#PWR069"  Part="1" 
AR Path="/59C6C1D7/563AD4A5" Ref="#PWR057"  Part="1" 
AR Path="/59C6D672/563AD4A5" Ref="#PWR057"  Part="1" 
F 0 "#PWR069" H 5500 4200 50  0001 C CNN
F 1 "GNDA" H 5500 4300 50  0000 C CNN
F 2 "" H 5500 4450 60  0000 C CNN
F 3 "" H 5500 4450 60  0000 C CNN
	1    5500 4450
	1    0    0    -1  
$EndComp
Wire Wire Line
	5500 3450 5500 4450
Wire Wire Line
	5500 4350 5400 4350
Wire Wire Line
	5500 4250 5400 4250
Connection ~ 5500 4350
Wire Wire Line
	5400 4150 5500 4150
Connection ~ 5500 4250
Wire Wire Line
	5400 4050 5500 4050
Connection ~ 5500 4150
Wire Wire Line
	5400 3950 5500 3950
Connection ~ 5500 4050
Wire Wire Line
	5400 3850 5500 3850
Connection ~ 5500 3950
Wire Wire Line
	5400 3750 5500 3750
Connection ~ 5500 3850
Wire Wire Line
	5400 3650 5500 3650
Connection ~ 5500 3750
Wire Wire Line
	5400 3550 5500 3550
Connection ~ 5500 3650
Wire Wire Line
	5400 3450 5500 3450
Connection ~ 5500 3550
Wire Wire Line
	8650 1850 8650 3550
Wire Wire Line
	8550 2700 8550 3650
Wire Wire Line
	8450 2900 8450 3750
Wire Wire Line
	8950 4250 8650 4250
Wire Wire Line
	8650 4250 8650 5850
Wire Wire Line
	8950 4150 8550 4150
Wire Wire Line
	8550 4150 8550 5000
Wire Wire Line
	8950 4050 8450 4050
Wire Wire Line
	8450 4050 8450 4650
Wire Wire Line
	8450 3750 8950 3750
Wire Wire Line
	8550 3650 8950 3650
Wire Wire Line
	8650 3550 8950 3550
$Comp
L GNDA #PWR070
U 1 1 563AE802
P 8850 4450
AR Path="/5633C57F/563AE802" Ref="#PWR070"  Part="1" 
AR Path="/59C6C1D7/563AE802" Ref="#PWR058"  Part="1" 
AR Path="/59C6D672/563AE802" Ref="#PWR058"  Part="1" 
F 0 "#PWR070" H 8850 4200 50  0001 C CNN
F 1 "GNDA" H 8850 4300 50  0000 C CNN
F 2 "" H 8850 4450 60  0000 C CNN
F 3 "" H 8850 4450 60  0000 C CNN
	1    8850 4450
	1    0    0    -1  
$EndComp
Wire Wire Line
	8850 3450 8850 4450
Wire Wire Line
	8850 4350 8950 4350
Wire Wire Line
	8850 3450 8950 3450
Connection ~ 8850 4350
$Comp
L GNDA #PWR071
U 1 1 563AE80C
P 9550 4450
AR Path="/5633C57F/563AE80C" Ref="#PWR071"  Part="1" 
AR Path="/59C6C1D7/563AE80C" Ref="#PWR059"  Part="1" 
AR Path="/59C6D672/563AE80C" Ref="#PWR059"  Part="1" 
F 0 "#PWR071" H 9550 4200 50  0001 C CNN
F 1 "GNDA" H 9550 4300 50  0000 C CNN
F 2 "" H 9550 4450 60  0000 C CNN
F 3 "" H 9550 4450 60  0000 C CNN
	1    9550 4450
	1    0    0    -1  
$EndComp
Wire Wire Line
	9550 3450 9550 4450
Wire Wire Line
	9550 4350 9450 4350
Wire Wire Line
	9550 4250 9450 4250
Connection ~ 9550 4350
Wire Wire Line
	9450 4150 9550 4150
Connection ~ 9550 4250
Wire Wire Line
	9450 4050 9550 4050
Connection ~ 9550 4150
Wire Wire Line
	9450 3950 9550 3950
Connection ~ 9550 4050
Wire Wire Line
	9450 3850 9550 3850
Connection ~ 9550 3950
Wire Wire Line
	9450 3750 9550 3750
Connection ~ 9550 3850
Wire Wire Line
	9450 3650 9550 3650
Connection ~ 9550 3750
Wire Wire Line
	9450 3550 9550 3550
Connection ~ 9550 3650
Wire Wire Line
	9450 3450 9550 3450
Connection ~ 9550 3550
Text Notes 850  1150 0    118  ~ 0
Analogue Passive Filters\nDifferential Outputs
$Comp
L CONN_02X10 P501
U 1 1 570D512A
P 5150 3900
AR Path="/5633C57F/570D512A" Ref="P501"  Part="1" 
AR Path="/59C6C1D7/570D512A" Ref="P501"  Part="1" 
AR Path="/59C6D672/570D512A" Ref="P501"  Part="1" 
F 0 "P501" H 5150 4450 50  0000 C CNN
F 1 "CONN_02X10" V 5150 3950 50  0000 C CNN
F 2 "MyKiCadLibs-Footprints:CONN_DIL_2X10_BOX_1MM" H 4350 3000 60  0001 C CNN
F 3 "" H 4350 3000 60  0000 C CNN
F 4 "2x10 2.54mm pitch box header" H 5150 3350 40  0001 C CNN "Description"
	1    5150 3900
	-1   0    0    -1  
$EndComp
$Comp
L CONN_02X10 P502
U 1 1 570D966E
P 9200 3900
AR Path="/5633C57F/570D966E" Ref="P502"  Part="1" 
AR Path="/59C6C1D7/570D966E" Ref="P502"  Part="1" 
AR Path="/59C6D672/570D966E" Ref="P502"  Part="1" 
F 0 "P502" H 9200 4450 50  0000 C CNN
F 1 "CONN_02X10" V 9200 3950 50  0000 C CNN
F 2 "MyKiCadLibs-Footprints:CONN_DIL_2X10_BOX_1MM" H 8400 3000 60  0001 C CNN
F 3 "" H 8400 3000 60  0000 C CNN
F 4 "2x10 2.54mm pitch box header" H 9200 3350 40  0001 C CNN "Description"
	1    9200 3900
	-1   0    0    -1  
$EndComp
$Comp
L R R501
U 1 1 570F6DFD
P 2950 1850
AR Path="/5633C57F/570F6DFD" Ref="R501"  Part="1" 
AR Path="/59C6C1D7/570F6DFD" Ref="R501"  Part="1" 
AR Path="/59C6D672/570F6DFD" Ref="R501"  Part="1" 
F 0 "R501" V 2870 1850 40  0000 C CNN
F 1 "240" V 2957 1851 40  0000 C CNN
F 2 "MyKiCadLibs-Footprints:SMD-1206" V 2880 1850 30  0001 C CNN
F 3 "" V 2870 1850 30  0000 C CNN
F 4 "250mW" V 3050 1850 40  0001 C CNN "Power"
F 5 "MELF0204 1% =>250mW or 1206 1% =>250mW" V 3195 1850 40  0001 C CNN "Description"
F 6 "1206" V 3125 1850 40  0001 C CNN "Size"
F 7 "1%" V 3275 1850 40  0001 C CNN "Tolerance"
	1    2950 1850
	0    -1   -1   0   
$EndComp
$Comp
L R R509
U 1 1 570F875D
P 2950 2700
AR Path="/5633C57F/570F875D" Ref="R509"  Part="1" 
AR Path="/59C6C1D7/570F875D" Ref="R509"  Part="1" 
AR Path="/59C6D672/570F875D" Ref="R509"  Part="1" 
F 0 "R509" V 2870 2700 40  0000 C CNN
F 1 "240" V 2957 2701 40  0000 C CNN
F 2 "MyKiCadLibs-Footprints:SMD-1206" V 2880 2700 30  0001 C CNN
F 3 "" V 2870 2700 30  0000 C CNN
F 4 "250mW" V 3050 2700 40  0001 C CNN "Power"
F 5 "MELF0204 1% =>250mW or 1206 1% =>250mW" V 3195 2700 40  0001 C CNN "Description"
F 6 "1206" V 3125 2700 40  0001 C CNN "Size"
F 7 "1%" V 3275 2700 40  0001 C CNN "Tolerance"
	1    2950 2700
	0    -1   1    0   
$EndComp
$Comp
L R R502
U 1 1 570F8CC3
P 3600 1850
AR Path="/5633C57F/570F8CC3" Ref="R502"  Part="1" 
AR Path="/59C6C1D7/570F8CC3" Ref="R502"  Part="1" 
AR Path="/59C6D672/570F8CC3" Ref="R502"  Part="1" 
F 0 "R502" V 3520 1850 40  0000 C CNN
F 1 "100" V 3607 1851 40  0000 C CNN
F 2 "MyKiCadLibs-Footprints:SMD-1206" V 3530 1850 30  0001 C CNN
F 3 "" V 3520 1850 30  0000 C CNN
F 4 "250mW" V 3700 1850 40  0001 C CNN "Power"
F 5 "MELF0204 1% =>250mW or 1206 1% =>250mW" V 3845 1850 40  0001 C CNN "Description"
F 6 "1206" V 3775 1850 40  0001 C CNN "Size"
F 7 "1%" V 3925 1850 40  0001 C CNN "Tolerance"
	1    3600 1850
	0    -1   1    0   
$EndComp
$Comp
L R R510
U 1 1 570F923C
P 3600 2700
AR Path="/5633C57F/570F923C" Ref="R510"  Part="1" 
AR Path="/59C6C1D7/570F923C" Ref="R510"  Part="1" 
AR Path="/59C6D672/570F923C" Ref="R510"  Part="1" 
F 0 "R510" V 3520 2700 40  0000 C CNN
F 1 "100" V 3607 2701 40  0000 C CNN
F 2 "MyKiCadLibs-Footprints:SMD-1206" V 3530 2700 30  0001 C CNN
F 3 "" V 3520 2700 30  0000 C CNN
F 4 "250mW" V 3700 2700 40  0001 C CNN "Power"
F 5 "MELF0204 1% =>250mW or 1206 1% =>250mW" V 3845 2700 40  0001 C CNN "Description"
F 6 "1206" V 3775 2700 40  0001 C CNN "Size"
F 7 "1%" V 3925 2700 40  0001 C CNN "Tolerance"
	1    3600 2700
	0    -1   -1   0   
$EndComp
$Comp
L R R505
U 1 1 570F97BA
P 3700 2050
AR Path="/5633C57F/570F97BA" Ref="R505"  Part="1" 
AR Path="/59C6C1D7/570F97BA" Ref="R505"  Part="1" 
AR Path="/59C6D672/570F97BA" Ref="R505"  Part="1" 
F 0 "R505" V 3620 2050 40  0000 C CNN
F 1 "100k" V 3707 2051 40  0000 C CNN
F 2 "MyKiCadLibs-Footprints:SMD-1206" V 3630 2050 30  0001 C CNN
F 3 "" V 3620 2050 30  0000 C CNN
F 4 "250mW" V 3800 2050 40  0001 C CNN "Power"
F 5 "MELF0204 1% =>250mW or 1206 1% =>250mW" V 3945 2050 40  0001 C CNN "Description"
F 6 "1206" V 3875 2050 40  0001 C CNN "Size"
F 7 "1%" V 4025 2050 40  0001 C CNN "Tolerance"
	1    3700 2050
	0    1    -1   0   
$EndComp
$Comp
L R R507
U 1 1 570F9AC6
P 3700 2550
AR Path="/5633C57F/570F9AC6" Ref="R507"  Part="1" 
AR Path="/59C6C1D7/570F9AC6" Ref="R507"  Part="1" 
AR Path="/59C6D672/570F9AC6" Ref="R507"  Part="1" 
F 0 "R507" V 3620 2550 40  0000 C CNN
F 1 "100k" V 3707 2551 40  0000 C CNN
F 2 "MyKiCadLibs-Footprints:SMD-1206" V 3630 2550 30  0001 C CNN
F 3 "" V 3620 2550 30  0000 C CNN
F 4 "250mW" V 3800 2550 40  0001 C CNN "Power"
F 5 "MELF0204 1% =>250mW or 1206 1% =>250mW" V 3945 2550 40  0001 C CNN "Description"
F 6 "1206" V 3875 2550 40  0001 C CNN "Size"
F 7 "1%" V 4025 2550 40  0001 C CNN "Tolerance"
	1    3700 2550
	0    1    1    0   
$EndComp
$Comp
L C C501
U 1 1 570FBAA0
P 3250 2200
AR Path="/5633C57F/570FBAA0" Ref="C501"  Part="1" 
AR Path="/59C6C1D7/570FBAA0" Ref="C501"  Part="1" 
AR Path="/59C6D672/570FBAA0" Ref="C501"  Part="1" 
F 0 "C501" H 3250 2300 40  0000 L CNN
F 1 "2n7" H 3260 2115 40  0000 L CNN
F 2 "MyKiCadLibs-Footprints:SMD-0805" H 3288 2050 30  0001 C CNN
F 3 "" H 3250 2300 60  0000 C CNN
F 4 "50V" H 3265 2045 40  0000 L CNN "Voltage"
F 5 "C0G" H 3265 1975 40  0000 L CNN "Type"
F 6 "Ceramic capacitor" H 3250 2500 40  0001 L CNN "Description"
F 7 "5%" H 3320 1835 40  0001 C CNN "Tolerance"
F 8 "0805" H 3260 1905 40  0001 L CNN "Size"
	1    3250 2200
	-1   0    0    1   
$EndComp
$Comp
L R R513
U 1 1 570FD605
P 2950 2900
AR Path="/5633C57F/570FD605" Ref="R513"  Part="1" 
AR Path="/59C6C1D7/570FD605" Ref="R513"  Part="1" 
AR Path="/59C6D672/570FD605" Ref="R513"  Part="1" 
F 0 "R513" V 2870 2900 40  0000 C CNN
F 1 "240" V 2957 2901 40  0000 C CNN
F 2 "MyKiCadLibs-Footprints:SMD-1206" V 2880 2900 30  0001 C CNN
F 3 "" V 2870 2900 30  0000 C CNN
F 4 "250mW" V 3050 2900 40  0001 C CNN "Power"
F 5 "MELF0204 1% =>250mW or 1206 1% =>250mW" V 3195 2900 40  0001 C CNN "Description"
F 6 "1206" V 3125 2900 40  0001 C CNN "Size"
F 7 "1%" V 3275 2900 40  0001 C CNN "Tolerance"
	1    2950 2900
	0    -1   -1   0   
$EndComp
$Comp
L R R521
U 1 1 570FD60F
P 2950 3750
AR Path="/5633C57F/570FD60F" Ref="R521"  Part="1" 
AR Path="/59C6C1D7/570FD60F" Ref="R521"  Part="1" 
AR Path="/59C6D672/570FD60F" Ref="R521"  Part="1" 
F 0 "R521" V 2870 3750 40  0000 C CNN
F 1 "240" V 2957 3751 40  0000 C CNN
F 2 "MyKiCadLibs-Footprints:SMD-1206" V 2880 3750 30  0001 C CNN
F 3 "" V 2870 3750 30  0000 C CNN
F 4 "250mW" V 3050 3750 40  0001 C CNN "Power"
F 5 "MELF0204 1% =>250mW or 1206 1% =>250mW" V 3195 3750 40  0001 C CNN "Description"
F 6 "1206" V 3125 3750 40  0001 C CNN "Size"
F 7 "1%" V 3275 3750 40  0001 C CNN "Tolerance"
	1    2950 3750
	0    -1   1    0   
$EndComp
$Comp
L R R514
U 1 1 570FD619
P 3600 2900
AR Path="/5633C57F/570FD619" Ref="R514"  Part="1" 
AR Path="/59C6C1D7/570FD619" Ref="R514"  Part="1" 
AR Path="/59C6D672/570FD619" Ref="R514"  Part="1" 
F 0 "R514" V 3520 2900 40  0000 C CNN
F 1 "100" V 3607 2901 40  0000 C CNN
F 2 "MyKiCadLibs-Footprints:SMD-1206" V 3530 2900 30  0001 C CNN
F 3 "" V 3520 2900 30  0000 C CNN
F 4 "250mW" V 3700 2900 40  0001 C CNN "Power"
F 5 "MELF0204 1% =>250mW or 1206 1% =>250mW" V 3845 2900 40  0001 C CNN "Description"
F 6 "1206" V 3775 2900 40  0001 C CNN "Size"
F 7 "1%" V 3925 2900 40  0001 C CNN "Tolerance"
	1    3600 2900
	0    -1   -1   0   
$EndComp
$Comp
L R R522
U 1 1 570FD623
P 3600 3750
AR Path="/5633C57F/570FD623" Ref="R522"  Part="1" 
AR Path="/59C6C1D7/570FD623" Ref="R522"  Part="1" 
AR Path="/59C6D672/570FD623" Ref="R522"  Part="1" 
F 0 "R522" V 3520 3750 40  0000 C CNN
F 1 "100" V 3607 3751 40  0000 C CNN
F 2 "MyKiCadLibs-Footprints:SMD-1206" V 3530 3750 30  0001 C CNN
F 3 "" V 3520 3750 30  0000 C CNN
F 4 "250mW" V 3700 3750 40  0001 C CNN "Power"
F 5 "MELF0204 1% =>250mW or 1206 1% =>250mW" V 3845 3750 40  0001 C CNN "Description"
F 6 "1206" V 3775 3750 40  0001 C CNN "Size"
F 7 "1%" V 3925 3750 40  0001 C CNN "Tolerance"
	1    3600 3750
	0    -1   -1   0   
$EndComp
$Comp
L R R517
U 1 1 570FD62D
P 3700 3100
AR Path="/5633C57F/570FD62D" Ref="R517"  Part="1" 
AR Path="/59C6C1D7/570FD62D" Ref="R517"  Part="1" 
AR Path="/59C6D672/570FD62D" Ref="R517"  Part="1" 
F 0 "R517" V 3620 3100 40  0000 C CNN
F 1 "100k" V 3707 3101 40  0000 C CNN
F 2 "MyKiCadLibs-Footprints:SMD-1206" V 3630 3100 30  0001 C CNN
F 3 "" V 3620 3100 30  0000 C CNN
F 4 "250mW" V 3800 3100 40  0001 C CNN "Power"
F 5 "MELF0204 1% =>250mW or 1206 1% =>250mW" V 3945 3100 40  0001 C CNN "Description"
F 6 "1206" V 3875 3100 40  0001 C CNN "Size"
F 7 "1%" V 4025 3100 40  0001 C CNN "Tolerance"
	1    3700 3100
	0    1    -1   0   
$EndComp
$Comp
L R R519
U 1 1 570FD637
P 3700 3600
AR Path="/5633C57F/570FD637" Ref="R519"  Part="1" 
AR Path="/59C6C1D7/570FD637" Ref="R519"  Part="1" 
AR Path="/59C6D672/570FD637" Ref="R519"  Part="1" 
F 0 "R519" V 3620 3600 40  0000 C CNN
F 1 "100k" V 3707 3601 40  0000 C CNN
F 2 "MyKiCadLibs-Footprints:SMD-1206" V 3630 3600 30  0001 C CNN
F 3 "" V 3620 3600 30  0000 C CNN
F 4 "250mW" V 3800 3600 40  0001 C CNN "Power"
F 5 "MELF0204 1% =>250mW or 1206 1% =>250mW" V 3945 3600 40  0001 C CNN "Description"
F 6 "1206" V 3875 3600 40  0001 C CNN "Size"
F 7 "1%" V 4025 3600 40  0001 C CNN "Tolerance"
	1    3700 3600
	0    1    1    0   
$EndComp
$Comp
L C C503
U 1 1 570FD642
P 3250 3250
AR Path="/5633C57F/570FD642" Ref="C503"  Part="1" 
AR Path="/59C6C1D7/570FD642" Ref="C503"  Part="1" 
AR Path="/59C6D672/570FD642" Ref="C503"  Part="1" 
F 0 "C503" H 3250 3350 40  0000 L CNN
F 1 "2n7" H 3260 3165 40  0000 L CNN
F 2 "MyKiCadLibs-Footprints:SMD-0805" H 3288 3100 30  0001 C CNN
F 3 "" H 3250 3350 60  0000 C CNN
F 4 "50V" H 3265 3095 40  0000 L CNN "Voltage"
F 5 "C0G" H 3265 3025 40  0000 L CNN "Type"
F 6 "Ceramic capacitor" H 3250 3550 40  0001 L CNN "Description"
F 7 "5%" H 3320 2885 40  0001 C CNN "Tolerance"
F 8 "0805" H 3260 2955 40  0001 L CNN "Size"
	1    3250 3250
	-1   0    0    1   
$EndComp
$Comp
L R R525
U 1 1 570FF46E
P 2950 3950
AR Path="/5633C57F/570FF46E" Ref="R525"  Part="1" 
AR Path="/59C6C1D7/570FF46E" Ref="R525"  Part="1" 
AR Path="/59C6D672/570FF46E" Ref="R525"  Part="1" 
F 0 "R525" V 2870 3950 40  0000 C CNN
F 1 "240" V 2957 3951 40  0000 C CNN
F 2 "MyKiCadLibs-Footprints:SMD-1206" V 2880 3950 30  0001 C CNN
F 3 "" V 2870 3950 30  0000 C CNN
F 4 "250mW" V 3050 3950 40  0001 C CNN "Power"
F 5 "MELF0204 1% =>250mW or 1206 1% =>250mW" V 3195 3950 40  0001 C CNN "Description"
F 6 "1206" V 3125 3950 40  0001 C CNN "Size"
F 7 "1%" V 3275 3950 40  0001 C CNN "Tolerance"
	1    2950 3950
	0    -1   -1   0   
$EndComp
$Comp
L R R533
U 1 1 570FF478
P 2950 4800
AR Path="/5633C57F/570FF478" Ref="R533"  Part="1" 
AR Path="/59C6C1D7/570FF478" Ref="R533"  Part="1" 
AR Path="/59C6D672/570FF478" Ref="R533"  Part="1" 
F 0 "R533" V 2870 4800 40  0000 C CNN
F 1 "240" V 2957 4801 40  0000 C CNN
F 2 "MyKiCadLibs-Footprints:SMD-1206" V 2880 4800 30  0001 C CNN
F 3 "" V 2870 4800 30  0000 C CNN
F 4 "250mW" V 3050 4800 40  0001 C CNN "Power"
F 5 "MELF0204 1% =>250mW or 1206 1% =>250mW" V 3195 4800 40  0001 C CNN "Description"
F 6 "1206" V 3125 4800 40  0001 C CNN "Size"
F 7 "1%" V 3275 4800 40  0001 C CNN "Tolerance"
	1    2950 4800
	0    -1   1    0   
$EndComp
$Comp
L R R526
U 1 1 570FF482
P 3600 3950
AR Path="/5633C57F/570FF482" Ref="R526"  Part="1" 
AR Path="/59C6C1D7/570FF482" Ref="R526"  Part="1" 
AR Path="/59C6D672/570FF482" Ref="R526"  Part="1" 
F 0 "R526" V 3520 3950 40  0000 C CNN
F 1 "100" V 3607 3951 40  0000 C CNN
F 2 "MyKiCadLibs-Footprints:SMD-1206" V 3530 3950 30  0001 C CNN
F 3 "" V 3520 3950 30  0000 C CNN
F 4 "250mW" V 3700 3950 40  0001 C CNN "Power"
F 5 "MELF0204 1% =>250mW or 1206 1% =>250mW" V 3845 3950 40  0001 C CNN "Description"
F 6 "1206" V 3775 3950 40  0001 C CNN "Size"
F 7 "1%" V 3925 3950 40  0001 C CNN "Tolerance"
	1    3600 3950
	0    -1   -1   0   
$EndComp
$Comp
L R R534
U 1 1 570FF48C
P 3600 4800
AR Path="/5633C57F/570FF48C" Ref="R534"  Part="1" 
AR Path="/59C6C1D7/570FF48C" Ref="R534"  Part="1" 
AR Path="/59C6D672/570FF48C" Ref="R534"  Part="1" 
F 0 "R534" V 3520 4800 40  0000 C CNN
F 1 "100" V 3607 4801 40  0000 C CNN
F 2 "MyKiCadLibs-Footprints:SMD-1206" V 3530 4800 30  0001 C CNN
F 3 "" V 3520 4800 30  0000 C CNN
F 4 "250mW" V 3700 4800 40  0001 C CNN "Power"
F 5 "MELF0204 1% =>250mW or 1206 1% =>250mW" V 3845 4800 40  0001 C CNN "Description"
F 6 "1206" V 3775 4800 40  0001 C CNN "Size"
F 7 "1%" V 3925 4800 40  0001 C CNN "Tolerance"
	1    3600 4800
	0    -1   -1   0   
$EndComp
$Comp
L R R529
U 1 1 570FF496
P 3700 4150
AR Path="/5633C57F/570FF496" Ref="R529"  Part="1" 
AR Path="/59C6C1D7/570FF496" Ref="R529"  Part="1" 
AR Path="/59C6D672/570FF496" Ref="R529"  Part="1" 
F 0 "R529" V 3620 4150 40  0000 C CNN
F 1 "100k" V 3707 4151 40  0000 C CNN
F 2 "MyKiCadLibs-Footprints:SMD-1206" V 3630 4150 30  0001 C CNN
F 3 "" V 3620 4150 30  0000 C CNN
F 4 "250mW" V 3800 4150 40  0001 C CNN "Power"
F 5 "MELF0204 1% =>250mW or 1206 1% =>250mW" V 3945 4150 40  0001 C CNN "Description"
F 6 "1206" V 3875 4150 40  0001 C CNN "Size"
F 7 "1%" V 4025 4150 40  0001 C CNN "Tolerance"
	1    3700 4150
	0    1    -1   0   
$EndComp
$Comp
L R R531
U 1 1 570FF4A0
P 3700 4650
AR Path="/5633C57F/570FF4A0" Ref="R531"  Part="1" 
AR Path="/59C6C1D7/570FF4A0" Ref="R531"  Part="1" 
AR Path="/59C6D672/570FF4A0" Ref="R531"  Part="1" 
F 0 "R531" V 3620 4650 40  0000 C CNN
F 1 "100k" V 3707 4651 40  0000 C CNN
F 2 "MyKiCadLibs-Footprints:SMD-1206" V 3630 4650 30  0001 C CNN
F 3 "" V 3620 4650 30  0000 C CNN
F 4 "250mW" V 3800 4650 40  0001 C CNN "Power"
F 5 "MELF0204 1% =>250mW or 1206 1% =>250mW" V 3945 4650 40  0001 C CNN "Description"
F 6 "1206" V 3875 4650 40  0001 C CNN "Size"
F 7 "1%" V 4025 4650 40  0001 C CNN "Tolerance"
	1    3700 4650
	0    1    1    0   
$EndComp
$Comp
L C C505
U 1 1 570FF4AB
P 3250 4300
AR Path="/5633C57F/570FF4AB" Ref="C505"  Part="1" 
AR Path="/59C6C1D7/570FF4AB" Ref="C505"  Part="1" 
AR Path="/59C6D672/570FF4AB" Ref="C505"  Part="1" 
F 0 "C505" H 3250 4400 40  0000 L CNN
F 1 "2n7" H 3260 4215 40  0000 L CNN
F 2 "MyKiCadLibs-Footprints:SMD-0805" H 3288 4150 30  0001 C CNN
F 3 "" H 3250 4400 60  0000 C CNN
F 4 "50V" H 3265 4145 40  0000 L CNN "Voltage"
F 5 "C0G" H 3265 4075 40  0000 L CNN "Type"
F 6 "Ceramic capacitor" H 3250 4600 40  0001 L CNN "Description"
F 7 "5%" H 3320 3935 40  0001 C CNN "Tolerance"
F 8 "0805" H 3260 4005 40  0001 L CNN "Size"
	1    3250 4300
	-1   0    0    1   
$EndComp
$Comp
L R R537
U 1 1 570FF65D
P 2950 5000
AR Path="/5633C57F/570FF65D" Ref="R537"  Part="1" 
AR Path="/59C6C1D7/570FF65D" Ref="R537"  Part="1" 
AR Path="/59C6D672/570FF65D" Ref="R537"  Part="1" 
F 0 "R537" V 2870 5000 40  0000 C CNN
F 1 "240" V 2957 5001 40  0000 C CNN
F 2 "MyKiCadLibs-Footprints:SMD-1206" V 2880 5000 30  0001 C CNN
F 3 "" V 2870 5000 30  0000 C CNN
F 4 "250mW" V 3050 5000 40  0001 C CNN "Power"
F 5 "MELF0204 1% =>250mW or 1206 1% =>250mW" V 3195 5000 40  0001 C CNN "Description"
F 6 "1206" V 3125 5000 40  0001 C CNN "Size"
F 7 "1%" V 3275 5000 40  0001 C CNN "Tolerance"
	1    2950 5000
	0    -1   -1   0   
$EndComp
$Comp
L R R545
U 1 1 570FF667
P 2950 5850
AR Path="/5633C57F/570FF667" Ref="R545"  Part="1" 
AR Path="/59C6C1D7/570FF667" Ref="R545"  Part="1" 
AR Path="/59C6D672/570FF667" Ref="R545"  Part="1" 
F 0 "R545" V 2870 5850 40  0000 C CNN
F 1 "240" V 2957 5851 40  0000 C CNN
F 2 "MyKiCadLibs-Footprints:SMD-1206" V 2880 5850 30  0001 C CNN
F 3 "" V 2870 5850 30  0000 C CNN
F 4 "250mW" V 3050 5850 40  0001 C CNN "Power"
F 5 "MELF0204 1% =>250mW or 1206 1% =>250mW" V 3195 5850 40  0001 C CNN "Description"
F 6 "1206" V 3125 5850 40  0001 C CNN "Size"
F 7 "1%" V 3275 5850 40  0001 C CNN "Tolerance"
	1    2950 5850
	0    -1   1    0   
$EndComp
$Comp
L R R538
U 1 1 570FF671
P 3600 5000
AR Path="/5633C57F/570FF671" Ref="R538"  Part="1" 
AR Path="/59C6C1D7/570FF671" Ref="R538"  Part="1" 
AR Path="/59C6D672/570FF671" Ref="R538"  Part="1" 
F 0 "R538" V 3520 5000 40  0000 C CNN
F 1 "100" V 3607 5001 40  0000 C CNN
F 2 "MyKiCadLibs-Footprints:SMD-1206" V 3530 5000 30  0001 C CNN
F 3 "" V 3520 5000 30  0000 C CNN
F 4 "250mW" V 3700 5000 40  0001 C CNN "Power"
F 5 "MELF0204 1% =>250mW or 1206 1% =>250mW" V 3845 5000 40  0001 C CNN "Description"
F 6 "1206" V 3775 5000 40  0001 C CNN "Size"
F 7 "1%" V 3925 5000 40  0001 C CNN "Tolerance"
	1    3600 5000
	0    -1   -1   0   
$EndComp
$Comp
L R R546
U 1 1 570FF67B
P 3600 5850
AR Path="/5633C57F/570FF67B" Ref="R546"  Part="1" 
AR Path="/59C6C1D7/570FF67B" Ref="R546"  Part="1" 
AR Path="/59C6D672/570FF67B" Ref="R546"  Part="1" 
F 0 "R546" V 3520 5850 40  0000 C CNN
F 1 "100" V 3607 5851 40  0000 C CNN
F 2 "MyKiCadLibs-Footprints:SMD-1206" V 3530 5850 30  0001 C CNN
F 3 "" V 3520 5850 30  0000 C CNN
F 4 "250mW" V 3700 5850 40  0001 C CNN "Power"
F 5 "MELF0204 1% =>250mW or 1206 1% =>250mW" V 3845 5850 40  0001 C CNN "Description"
F 6 "1206" V 3775 5850 40  0001 C CNN "Size"
F 7 "1%" V 3925 5850 40  0001 C CNN "Tolerance"
	1    3600 5850
	0    -1   -1   0   
$EndComp
$Comp
L R R541
U 1 1 570FF685
P 3700 5200
AR Path="/5633C57F/570FF685" Ref="R541"  Part="1" 
AR Path="/59C6C1D7/570FF685" Ref="R541"  Part="1" 
AR Path="/59C6D672/570FF685" Ref="R541"  Part="1" 
F 0 "R541" V 3620 5200 40  0000 C CNN
F 1 "100k" V 3707 5201 40  0000 C CNN
F 2 "MyKiCadLibs-Footprints:SMD-1206" V 3630 5200 30  0001 C CNN
F 3 "" V 3620 5200 30  0000 C CNN
F 4 "250mW" V 3800 5200 40  0001 C CNN "Power"
F 5 "MELF0204 1% =>250mW or 1206 1% =>250mW" V 3945 5200 40  0001 C CNN "Description"
F 6 "1206" V 3875 5200 40  0001 C CNN "Size"
F 7 "1%" V 4025 5200 40  0001 C CNN "Tolerance"
	1    3700 5200
	0    1    -1   0   
$EndComp
$Comp
L R R543
U 1 1 570FF68F
P 3700 5700
AR Path="/5633C57F/570FF68F" Ref="R543"  Part="1" 
AR Path="/59C6C1D7/570FF68F" Ref="R543"  Part="1" 
AR Path="/59C6D672/570FF68F" Ref="R543"  Part="1" 
F 0 "R543" V 3620 5700 40  0000 C CNN
F 1 "100k" V 3707 5701 40  0000 C CNN
F 2 "MyKiCadLibs-Footprints:SMD-1206" V 3630 5700 30  0001 C CNN
F 3 "" V 3620 5700 30  0000 C CNN
F 4 "250mW" V 3800 5700 40  0001 C CNN "Power"
F 5 "MELF0204 1% =>250mW or 1206 1% =>250mW" V 3945 5700 40  0001 C CNN "Description"
F 6 "1206" V 3875 5700 40  0001 C CNN "Size"
F 7 "1%" V 4025 5700 40  0001 C CNN "Tolerance"
	1    3700 5700
	0    1    1    0   
$EndComp
$Comp
L C C507
U 1 1 570FF69A
P 3250 5350
AR Path="/5633C57F/570FF69A" Ref="C507"  Part="1" 
AR Path="/59C6C1D7/570FF69A" Ref="C507"  Part="1" 
AR Path="/59C6D672/570FF69A" Ref="C507"  Part="1" 
F 0 "C507" H 3250 5450 40  0000 L CNN
F 1 "2n7" H 3260 5265 40  0000 L CNN
F 2 "MyKiCadLibs-Footprints:SMD-0805" H 3288 5200 30  0001 C CNN
F 3 "" H 3250 5450 60  0000 C CNN
F 4 "50V" H 3265 5195 40  0000 L CNN "Voltage"
F 5 "C0G" H 3265 5125 40  0000 L CNN "Type"
F 6 "Ceramic capacitor" H 3250 5650 40  0001 L CNN "Description"
F 7 "5%" H 3320 4985 40  0001 C CNN "Tolerance"
F 8 "0805" H 3260 5055 40  0001 L CNN "Size"
	1    3250 5350
	-1   0    0    1   
$EndComp
$Comp
L GNDA #PWR072
U 1 1 57111C88
P 7650 2250
AR Path="/5633C57F/57111C88" Ref="#PWR072"  Part="1" 
AR Path="/59C6C1D7/57111C88" Ref="#PWR060"  Part="1" 
AR Path="/59C6D672/57111C88" Ref="#PWR060"  Part="1" 
F 0 "#PWR072" H 7650 2000 50  0001 C CNN
F 1 "GNDA" H 7650 2100 50  0000 C CNN
F 2 "" H 7650 2250 60  0000 C CNN
F 3 "" H 7650 2250 60  0000 C CNN
	1    7650 2250
	1    0    0    -1  
$EndComp
$Comp
L GNDA #PWR073
U 1 1 57111C8E
P 7650 3300
AR Path="/5633C57F/57111C8E" Ref="#PWR073"  Part="1" 
AR Path="/59C6C1D7/57111C8E" Ref="#PWR061"  Part="1" 
AR Path="/59C6D672/57111C8E" Ref="#PWR061"  Part="1" 
F 0 "#PWR073" H 7650 3050 50  0001 C CNN
F 1 "GNDA" H 7650 3150 50  0000 C CNN
F 2 "" H 7650 3300 60  0000 C CNN
F 3 "" H 7650 3300 60  0000 C CNN
	1    7650 3300
	1    0    0    -1  
$EndComp
$Comp
L GNDA #PWR074
U 1 1 57111C94
P 7650 4350
AR Path="/5633C57F/57111C94" Ref="#PWR074"  Part="1" 
AR Path="/59C6C1D7/57111C94" Ref="#PWR062"  Part="1" 
AR Path="/59C6D672/57111C94" Ref="#PWR062"  Part="1" 
F 0 "#PWR074" H 7650 4100 50  0001 C CNN
F 1 "GNDA" H 7650 4200 50  0000 C CNN
F 2 "" H 7650 4350 60  0000 C CNN
F 3 "" H 7650 4350 60  0000 C CNN
	1    7650 4350
	1    0    0    -1  
$EndComp
$Comp
L GNDA #PWR075
U 1 1 57111C9A
P 7650 5400
AR Path="/5633C57F/57111C9A" Ref="#PWR075"  Part="1" 
AR Path="/59C6C1D7/57111C9A" Ref="#PWR063"  Part="1" 
AR Path="/59C6D672/57111C9A" Ref="#PWR063"  Part="1" 
F 0 "#PWR075" H 7650 5150 50  0001 C CNN
F 1 "GNDA" H 7650 5250 50  0000 C CNN
F 2 "" H 7650 5400 60  0000 C CNN
F 3 "" H 7650 5400 60  0000 C CNN
	1    7650 5400
	1    0    0    -1  
$EndComp
Wire Wire Line
	7250 1850 7400 1850
Connection ~ 7300 1850
Wire Wire Line
	7250 2700 7400 2700
Wire Wire Line
	7300 1850 7300 2000
Wire Wire Line
	7300 2700 7300 2400
Connection ~ 7300 2700
Wire Wire Line
	7450 2050 7450 2550
Wire Wire Line
	7450 2150 7650 2150
Wire Wire Line
	7650 2150 7650 2250
Connection ~ 7450 2150
Wire Wire Line
	7450 2050 7500 2050
Wire Wire Line
	7450 2550 7500 2550
Wire Wire Line
	7900 2700 8550 2700
Wire Wire Line
	8050 2700 8050 2550
Wire Wire Line
	8050 2550 8000 2550
Wire Wire Line
	7900 1850 8650 1850
Wire Wire Line
	8050 1850 8050 2050
Wire Wire Line
	8050 2050 8000 2050
Wire Wire Line
	7250 2900 7400 2900
Connection ~ 7300 2900
Wire Wire Line
	7250 3750 7400 3750
Wire Wire Line
	7300 2900 7300 3050
Wire Wire Line
	7300 3750 7300 3450
Connection ~ 7300 3750
Wire Wire Line
	7450 3100 7450 3600
Wire Wire Line
	7450 3200 7650 3200
Wire Wire Line
	7650 3200 7650 3300
Connection ~ 7450 3200
Wire Wire Line
	7450 3100 7500 3100
Wire Wire Line
	7450 3600 7500 3600
Wire Wire Line
	8050 3600 8050 3850
Wire Wire Line
	8050 3600 8000 3600
Wire Wire Line
	7900 2900 8450 2900
Wire Wire Line
	8050 2900 8050 3100
Wire Wire Line
	8050 3100 8000 3100
Wire Wire Line
	7250 3950 7400 3950
Connection ~ 7300 3950
Wire Wire Line
	7250 4800 7400 4800
Wire Wire Line
	7300 3950 7300 4100
Wire Wire Line
	7300 4800 7300 4500
Connection ~ 7300 4800
Wire Wire Line
	7450 4150 7450 4650
Wire Wire Line
	7450 4250 7650 4250
Wire Wire Line
	7650 4250 7650 4350
Connection ~ 7450 4250
Wire Wire Line
	7450 4150 7500 4150
Wire Wire Line
	7450 4650 7500 4650
Wire Wire Line
	7900 4800 8050 4800
Wire Wire Line
	8050 4800 8050 4650
Wire Wire Line
	8450 4650 8000 4650
Wire Wire Line
	7900 3950 8950 3950
Wire Wire Line
	8050 3950 8050 4150
Wire Wire Line
	8050 4150 8000 4150
Wire Wire Line
	7250 5000 7400 5000
Connection ~ 7300 5000
Wire Wire Line
	7250 5850 7400 5850
Wire Wire Line
	7300 5000 7300 5150
Wire Wire Line
	7300 5850 7300 5550
Connection ~ 7300 5850
Wire Wire Line
	7450 5200 7450 5700
Wire Wire Line
	7450 5300 7650 5300
Wire Wire Line
	7650 5300 7650 5400
Connection ~ 7450 5300
Wire Wire Line
	7450 5200 7500 5200
Wire Wire Line
	7450 5700 7500 5700
Wire Wire Line
	8650 5850 7900 5850
Wire Wire Line
	8050 5850 8050 5700
Wire Wire Line
	8050 5700 8000 5700
Wire Wire Line
	8550 5000 7900 5000
Wire Wire Line
	8050 5000 8050 5200
Wire Wire Line
	8050 5200 8000 5200
Connection ~ 8050 1850
Connection ~ 8050 2700
Connection ~ 8050 2900
Connection ~ 8050 3750
Connection ~ 8050 5850
Connection ~ 8050 5000
Connection ~ 8050 4650
Connection ~ 8050 3950
Wire Wire Line
	8050 3850 8950 3850
Wire Wire Line
	7900 3750 8050 3750
$Comp
L R R503
U 1 1 57111CF5
P 7000 1850
AR Path="/5633C57F/57111CF5" Ref="R503"  Part="1" 
AR Path="/59C6C1D7/57111CF5" Ref="R503"  Part="1" 
AR Path="/59C6D672/57111CF5" Ref="R503"  Part="1" 
F 0 "R503" V 6920 1850 40  0000 C CNN
F 1 "240" V 7007 1851 40  0000 C CNN
F 2 "MyKiCadLibs-Footprints:SMD-1206" V 6930 1850 30  0001 C CNN
F 3 "" V 6920 1850 30  0000 C CNN
F 4 "250mW" V 7100 1850 40  0001 C CNN "Power"
F 5 "MELF0204 1% =>250mW or 1206 1% =>250mW" V 7245 1850 40  0001 C CNN "Description"
F 6 "1206" V 7175 1850 40  0001 C CNN "Size"
F 7 "1%" V 7325 1850 40  0001 C CNN "Tolerance"
	1    7000 1850
	0    -1   -1   0   
$EndComp
$Comp
L R R511
U 1 1 57111CFF
P 7000 2700
AR Path="/5633C57F/57111CFF" Ref="R511"  Part="1" 
AR Path="/59C6C1D7/57111CFF" Ref="R511"  Part="1" 
AR Path="/59C6D672/57111CFF" Ref="R511"  Part="1" 
F 0 "R511" V 6920 2700 40  0000 C CNN
F 1 "240" V 7007 2701 40  0000 C CNN
F 2 "MyKiCadLibs-Footprints:SMD-1206" V 6930 2700 30  0001 C CNN
F 3 "" V 6920 2700 30  0000 C CNN
F 4 "250mW" V 7100 2700 40  0001 C CNN "Power"
F 5 "MELF0204 1% =>250mW or 1206 1% =>250mW" V 7245 2700 40  0001 C CNN "Description"
F 6 "1206" V 7175 2700 40  0001 C CNN "Size"
F 7 "1%" V 7325 2700 40  0001 C CNN "Tolerance"
	1    7000 2700
	0    -1   1    0   
$EndComp
$Comp
L R R504
U 1 1 57111D09
P 7650 1850
AR Path="/5633C57F/57111D09" Ref="R504"  Part="1" 
AR Path="/59C6C1D7/57111D09" Ref="R504"  Part="1" 
AR Path="/59C6D672/57111D09" Ref="R504"  Part="1" 
F 0 "R504" V 7570 1850 40  0000 C CNN
F 1 "100" V 7657 1851 40  0000 C CNN
F 2 "MyKiCadLibs-Footprints:SMD-1206" V 7580 1850 30  0001 C CNN
F 3 "" V 7570 1850 30  0000 C CNN
F 4 "250mW" V 7750 1850 40  0001 C CNN "Power"
F 5 "MELF0204 1% =>250mW or 1206 1% =>250mW" V 7895 1850 40  0001 C CNN "Description"
F 6 "1206" V 7825 1850 40  0001 C CNN "Size"
F 7 "1%" V 7975 1850 40  0001 C CNN "Tolerance"
	1    7650 1850
	0    -1   1    0   
$EndComp
$Comp
L R R512
U 1 1 57111D13
P 7650 2700
AR Path="/5633C57F/57111D13" Ref="R512"  Part="1" 
AR Path="/59C6C1D7/57111D13" Ref="R512"  Part="1" 
AR Path="/59C6D672/57111D13" Ref="R512"  Part="1" 
F 0 "R512" V 7570 2700 40  0000 C CNN
F 1 "100" V 7657 2701 40  0000 C CNN
F 2 "MyKiCadLibs-Footprints:SMD-1206" V 7580 2700 30  0001 C CNN
F 3 "" V 7570 2700 30  0000 C CNN
F 4 "250mW" V 7750 2700 40  0001 C CNN "Power"
F 5 "MELF0204 1% =>250mW or 1206 1% =>250mW" V 7895 2700 40  0001 C CNN "Description"
F 6 "1206" V 7825 2700 40  0001 C CNN "Size"
F 7 "1%" V 7975 2700 40  0001 C CNN "Tolerance"
	1    7650 2700
	0    -1   -1   0   
$EndComp
$Comp
L R R506
U 1 1 57111D1D
P 7750 2050
AR Path="/5633C57F/57111D1D" Ref="R506"  Part="1" 
AR Path="/59C6C1D7/57111D1D" Ref="R506"  Part="1" 
AR Path="/59C6D672/57111D1D" Ref="R506"  Part="1" 
F 0 "R506" V 7670 2050 40  0000 C CNN
F 1 "100k" V 7757 2051 40  0000 C CNN
F 2 "MyKiCadLibs-Footprints:SMD-1206" V 7680 2050 30  0001 C CNN
F 3 "" V 7670 2050 30  0000 C CNN
F 4 "250mW" V 7850 2050 40  0001 C CNN "Power"
F 5 "MELF0204 1% =>250mW or 1206 1% =>250mW" V 7995 2050 40  0001 C CNN "Description"
F 6 "1206" V 7925 2050 40  0001 C CNN "Size"
F 7 "1%" V 8075 2050 40  0001 C CNN "Tolerance"
	1    7750 2050
	0    1    -1   0   
$EndComp
$Comp
L R R508
U 1 1 57111D27
P 7750 2550
AR Path="/5633C57F/57111D27" Ref="R508"  Part="1" 
AR Path="/59C6C1D7/57111D27" Ref="R508"  Part="1" 
AR Path="/59C6D672/57111D27" Ref="R508"  Part="1" 
F 0 "R508" V 7670 2550 40  0000 C CNN
F 1 "100k" V 7757 2551 40  0000 C CNN
F 2 "MyKiCadLibs-Footprints:SMD-1206" V 7680 2550 30  0001 C CNN
F 3 "" V 7670 2550 30  0000 C CNN
F 4 "250mW" V 7850 2550 40  0001 C CNN "Power"
F 5 "MELF0204 1% =>250mW or 1206 1% =>250mW" V 7995 2550 40  0001 C CNN "Description"
F 6 "1206" V 7925 2550 40  0001 C CNN "Size"
F 7 "1%" V 8075 2550 40  0001 C CNN "Tolerance"
	1    7750 2550
	0    1    1    0   
$EndComp
$Comp
L C C502
U 1 1 57111D32
P 7300 2200
AR Path="/5633C57F/57111D32" Ref="C502"  Part="1" 
AR Path="/59C6C1D7/57111D32" Ref="C502"  Part="1" 
AR Path="/59C6D672/57111D32" Ref="C502"  Part="1" 
F 0 "C502" H 7300 2300 40  0000 L CNN
F 1 "2n7" H 7310 2115 40  0000 L CNN
F 2 "MyKiCadLibs-Footprints:SMD-0805" H 7338 2050 30  0001 C CNN
F 3 "" H 7300 2300 60  0000 C CNN
F 4 "50V" H 7315 2045 40  0000 L CNN "Voltage"
F 5 "C0G" H 7315 1975 40  0000 L CNN "Type"
F 6 "Ceramic capacitor" H 7300 2500 40  0001 L CNN "Description"
F 7 "5%" H 7370 1835 40  0001 C CNN "Tolerance"
F 8 "0805" H 7310 1905 40  0001 L CNN "Size"
	1    7300 2200
	-1   0    0    1   
$EndComp
$Comp
L R R515
U 1 1 57111D3C
P 7000 2900
AR Path="/5633C57F/57111D3C" Ref="R515"  Part="1" 
AR Path="/59C6C1D7/57111D3C" Ref="R515"  Part="1" 
AR Path="/59C6D672/57111D3C" Ref="R515"  Part="1" 
F 0 "R515" V 6920 2900 40  0000 C CNN
F 1 "240" V 7007 2901 40  0000 C CNN
F 2 "MyKiCadLibs-Footprints:SMD-1206" V 6930 2900 30  0001 C CNN
F 3 "" V 6920 2900 30  0000 C CNN
F 4 "250mW" V 7100 2900 40  0001 C CNN "Power"
F 5 "MELF0204 1% =>250mW or 1206 1% =>250mW" V 7245 2900 40  0001 C CNN "Description"
F 6 "1206" V 7175 2900 40  0001 C CNN "Size"
F 7 "1%" V 7325 2900 40  0001 C CNN "Tolerance"
	1    7000 2900
	0    -1   -1   0   
$EndComp
$Comp
L R R523
U 1 1 57111D46
P 7000 3750
AR Path="/5633C57F/57111D46" Ref="R523"  Part="1" 
AR Path="/59C6C1D7/57111D46" Ref="R523"  Part="1" 
AR Path="/59C6D672/57111D46" Ref="R523"  Part="1" 
F 0 "R523" V 6920 3750 40  0000 C CNN
F 1 "240" V 7007 3751 40  0000 C CNN
F 2 "MyKiCadLibs-Footprints:SMD-1206" V 6930 3750 30  0001 C CNN
F 3 "" V 6920 3750 30  0000 C CNN
F 4 "250mW" V 7100 3750 40  0001 C CNN "Power"
F 5 "MELF0204 1% =>250mW or 1206 1% =>250mW" V 7245 3750 40  0001 C CNN "Description"
F 6 "1206" V 7175 3750 40  0001 C CNN "Size"
F 7 "1%" V 7325 3750 40  0001 C CNN "Tolerance"
	1    7000 3750
	0    -1   1    0   
$EndComp
$Comp
L R R516
U 1 1 57111D50
P 7650 2900
AR Path="/5633C57F/57111D50" Ref="R516"  Part="1" 
AR Path="/59C6C1D7/57111D50" Ref="R516"  Part="1" 
AR Path="/59C6D672/57111D50" Ref="R516"  Part="1" 
F 0 "R516" V 7570 2900 40  0000 C CNN
F 1 "100" V 7657 2901 40  0000 C CNN
F 2 "MyKiCadLibs-Footprints:SMD-1206" V 7580 2900 30  0001 C CNN
F 3 "" V 7570 2900 30  0000 C CNN
F 4 "250mW" V 7750 2900 40  0001 C CNN "Power"
F 5 "MELF0204 1% =>250mW or 1206 1% =>250mW" V 7895 2900 40  0001 C CNN "Description"
F 6 "1206" V 7825 2900 40  0001 C CNN "Size"
F 7 "1%" V 7975 2900 40  0001 C CNN "Tolerance"
	1    7650 2900
	0    -1   -1   0   
$EndComp
$Comp
L R R524
U 1 1 57111D5A
P 7650 3750
AR Path="/5633C57F/57111D5A" Ref="R524"  Part="1" 
AR Path="/59C6C1D7/57111D5A" Ref="R524"  Part="1" 
AR Path="/59C6D672/57111D5A" Ref="R524"  Part="1" 
F 0 "R524" V 7570 3750 40  0000 C CNN
F 1 "100" V 7657 3751 40  0000 C CNN
F 2 "MyKiCadLibs-Footprints:SMD-1206" V 7580 3750 30  0001 C CNN
F 3 "" V 7570 3750 30  0000 C CNN
F 4 "250mW" V 7750 3750 40  0001 C CNN "Power"
F 5 "MELF0204 1% =>250mW or 1206 1% =>250mW" V 7895 3750 40  0001 C CNN "Description"
F 6 "1206" V 7825 3750 40  0001 C CNN "Size"
F 7 "1%" V 7975 3750 40  0001 C CNN "Tolerance"
	1    7650 3750
	0    -1   -1   0   
$EndComp
$Comp
L R R518
U 1 1 57111D64
P 7750 3100
AR Path="/5633C57F/57111D64" Ref="R518"  Part="1" 
AR Path="/59C6C1D7/57111D64" Ref="R518"  Part="1" 
AR Path="/59C6D672/57111D64" Ref="R518"  Part="1" 
F 0 "R518" V 7670 3100 40  0000 C CNN
F 1 "100k" V 7757 3101 40  0000 C CNN
F 2 "MyKiCadLibs-Footprints:SMD-1206" V 7680 3100 30  0001 C CNN
F 3 "" V 7670 3100 30  0000 C CNN
F 4 "250mW" V 7850 3100 40  0001 C CNN "Power"
F 5 "MELF0204 1% =>250mW or 1206 1% =>250mW" V 7995 3100 40  0001 C CNN "Description"
F 6 "1206" V 7925 3100 40  0001 C CNN "Size"
F 7 "1%" V 8075 3100 40  0001 C CNN "Tolerance"
	1    7750 3100
	0    1    -1   0   
$EndComp
$Comp
L R R520
U 1 1 57111D6E
P 7750 3600
AR Path="/5633C57F/57111D6E" Ref="R520"  Part="1" 
AR Path="/59C6C1D7/57111D6E" Ref="R520"  Part="1" 
AR Path="/59C6D672/57111D6E" Ref="R520"  Part="1" 
F 0 "R520" V 7670 3600 40  0000 C CNN
F 1 "100k" V 7757 3601 40  0000 C CNN
F 2 "MyKiCadLibs-Footprints:SMD-1206" V 7680 3600 30  0001 C CNN
F 3 "" V 7670 3600 30  0000 C CNN
F 4 "250mW" V 7850 3600 40  0001 C CNN "Power"
F 5 "MELF0204 1% =>250mW or 1206 1% =>250mW" V 7995 3600 40  0001 C CNN "Description"
F 6 "1206" V 7925 3600 40  0001 C CNN "Size"
F 7 "1%" V 8075 3600 40  0001 C CNN "Tolerance"
	1    7750 3600
	0    1    1    0   
$EndComp
$Comp
L C C504
U 1 1 57111D79
P 7300 3250
AR Path="/5633C57F/57111D79" Ref="C504"  Part="1" 
AR Path="/59C6C1D7/57111D79" Ref="C504"  Part="1" 
AR Path="/59C6D672/57111D79" Ref="C504"  Part="1" 
F 0 "C504" H 7300 3350 40  0000 L CNN
F 1 "2n7" H 7310 3165 40  0000 L CNN
F 2 "MyKiCadLibs-Footprints:SMD-0805" H 7338 3100 30  0001 C CNN
F 3 "" H 7300 3350 60  0000 C CNN
F 4 "50V" H 7315 3095 40  0000 L CNN "Voltage"
F 5 "C0G" H 7315 3025 40  0000 L CNN "Type"
F 6 "Ceramic capacitor" H 7300 3550 40  0001 L CNN "Description"
F 7 "5%" H 7370 2885 40  0001 C CNN "Tolerance"
F 8 "0805" H 7310 2955 40  0001 L CNN "Size"
	1    7300 3250
	-1   0    0    1   
$EndComp
$Comp
L R R527
U 1 1 57111D83
P 7000 3950
AR Path="/5633C57F/57111D83" Ref="R527"  Part="1" 
AR Path="/59C6C1D7/57111D83" Ref="R527"  Part="1" 
AR Path="/59C6D672/57111D83" Ref="R527"  Part="1" 
F 0 "R527" V 6920 3950 40  0000 C CNN
F 1 "240" V 7007 3951 40  0000 C CNN
F 2 "MyKiCadLibs-Footprints:SMD-1206" V 6930 3950 30  0001 C CNN
F 3 "" V 6920 3950 30  0000 C CNN
F 4 "250mW" V 7100 3950 40  0001 C CNN "Power"
F 5 "MELF0204 1% =>250mW or 1206 1% =>250mW" V 7245 3950 40  0001 C CNN "Description"
F 6 "1206" V 7175 3950 40  0001 C CNN "Size"
F 7 "1%" V 7325 3950 40  0001 C CNN "Tolerance"
	1    7000 3950
	0    -1   -1   0   
$EndComp
$Comp
L R R535
U 1 1 57111D8D
P 7000 4800
AR Path="/5633C57F/57111D8D" Ref="R535"  Part="1" 
AR Path="/59C6C1D7/57111D8D" Ref="R535"  Part="1" 
AR Path="/59C6D672/57111D8D" Ref="R535"  Part="1" 
F 0 "R535" V 6920 4800 40  0000 C CNN
F 1 "240" V 7007 4801 40  0000 C CNN
F 2 "MyKiCadLibs-Footprints:SMD-1206" V 6930 4800 30  0001 C CNN
F 3 "" V 6920 4800 30  0000 C CNN
F 4 "250mW" V 7100 4800 40  0001 C CNN "Power"
F 5 "MELF0204 1% =>250mW or 1206 1% =>250mW" V 7245 4800 40  0001 C CNN "Description"
F 6 "1206" V 7175 4800 40  0001 C CNN "Size"
F 7 "1%" V 7325 4800 40  0001 C CNN "Tolerance"
	1    7000 4800
	0    -1   1    0   
$EndComp
$Comp
L R R528
U 1 1 57111D97
P 7650 3950
AR Path="/5633C57F/57111D97" Ref="R528"  Part="1" 
AR Path="/59C6C1D7/57111D97" Ref="R528"  Part="1" 
AR Path="/59C6D672/57111D97" Ref="R528"  Part="1" 
F 0 "R528" V 7570 3950 40  0000 C CNN
F 1 "100" V 7657 3951 40  0000 C CNN
F 2 "MyKiCadLibs-Footprints:SMD-1206" V 7580 3950 30  0001 C CNN
F 3 "" V 7570 3950 30  0000 C CNN
F 4 "250mW" V 7750 3950 40  0001 C CNN "Power"
F 5 "MELF0204 1% =>250mW or 1206 1% =>250mW" V 7895 3950 40  0001 C CNN "Description"
F 6 "1206" V 7825 3950 40  0001 C CNN "Size"
F 7 "1%" V 7975 3950 40  0001 C CNN "Tolerance"
	1    7650 3950
	0    -1   -1   0   
$EndComp
$Comp
L R R536
U 1 1 57111DA1
P 7650 4800
AR Path="/5633C57F/57111DA1" Ref="R536"  Part="1" 
AR Path="/59C6C1D7/57111DA1" Ref="R536"  Part="1" 
AR Path="/59C6D672/57111DA1" Ref="R536"  Part="1" 
F 0 "R536" V 7570 4800 40  0000 C CNN
F 1 "100" V 7657 4801 40  0000 C CNN
F 2 "MyKiCadLibs-Footprints:SMD-1206" V 7580 4800 30  0001 C CNN
F 3 "" V 7570 4800 30  0000 C CNN
F 4 "250mW" V 7750 4800 40  0001 C CNN "Power"
F 5 "MELF0204 1% =>250mW or 1206 1% =>250mW" V 7895 4800 40  0001 C CNN "Description"
F 6 "1206" V 7825 4800 40  0001 C CNN "Size"
F 7 "1%" V 7975 4800 40  0001 C CNN "Tolerance"
	1    7650 4800
	0    -1   -1   0   
$EndComp
$Comp
L R R530
U 1 1 57111DAB
P 7750 4150
AR Path="/5633C57F/57111DAB" Ref="R530"  Part="1" 
AR Path="/59C6C1D7/57111DAB" Ref="R530"  Part="1" 
AR Path="/59C6D672/57111DAB" Ref="R530"  Part="1" 
F 0 "R530" V 7670 4150 40  0000 C CNN
F 1 "100k" V 7757 4151 40  0000 C CNN
F 2 "MyKiCadLibs-Footprints:SMD-1206" V 7680 4150 30  0001 C CNN
F 3 "" V 7670 4150 30  0000 C CNN
F 4 "250mW" V 7850 4150 40  0001 C CNN "Power"
F 5 "MELF0204 1% =>250mW or 1206 1% =>250mW" V 7995 4150 40  0001 C CNN "Description"
F 6 "1206" V 7925 4150 40  0001 C CNN "Size"
F 7 "1%" V 8075 4150 40  0001 C CNN "Tolerance"
	1    7750 4150
	0    1    -1   0   
$EndComp
$Comp
L R R532
U 1 1 57111DB5
P 7750 4650
AR Path="/5633C57F/57111DB5" Ref="R532"  Part="1" 
AR Path="/59C6C1D7/57111DB5" Ref="R532"  Part="1" 
AR Path="/59C6D672/57111DB5" Ref="R532"  Part="1" 
F 0 "R532" V 7670 4650 40  0000 C CNN
F 1 "100k" V 7757 4651 40  0000 C CNN
F 2 "MyKiCadLibs-Footprints:SMD-1206" V 7680 4650 30  0001 C CNN
F 3 "" V 7670 4650 30  0000 C CNN
F 4 "250mW" V 7850 4650 40  0001 C CNN "Power"
F 5 "MELF0204 1% =>250mW or 1206 1% =>250mW" V 7995 4650 40  0001 C CNN "Description"
F 6 "1206" V 7925 4650 40  0001 C CNN "Size"
F 7 "1%" V 8075 4650 40  0001 C CNN "Tolerance"
	1    7750 4650
	0    1    1    0   
$EndComp
$Comp
L C C506
U 1 1 57111DC0
P 7300 4300
AR Path="/5633C57F/57111DC0" Ref="C506"  Part="1" 
AR Path="/59C6C1D7/57111DC0" Ref="C506"  Part="1" 
AR Path="/59C6D672/57111DC0" Ref="C506"  Part="1" 
F 0 "C506" H 7300 4400 40  0000 L CNN
F 1 "2n7" H 7310 4215 40  0000 L CNN
F 2 "MyKiCadLibs-Footprints:SMD-0805" H 7338 4150 30  0001 C CNN
F 3 "" H 7300 4400 60  0000 C CNN
F 4 "50V" H 7315 4145 40  0000 L CNN "Voltage"
F 5 "C0G" H 7315 4075 40  0000 L CNN "Type"
F 6 "Ceramic capacitor" H 7300 4600 40  0001 L CNN "Description"
F 7 "5%" H 7370 3935 40  0001 C CNN "Tolerance"
F 8 "0805" H 7310 4005 40  0001 L CNN "Size"
	1    7300 4300
	-1   0    0    1   
$EndComp
$Comp
L R R539
U 1 1 57111DCA
P 7000 5000
AR Path="/5633C57F/57111DCA" Ref="R539"  Part="1" 
AR Path="/59C6C1D7/57111DCA" Ref="R539"  Part="1" 
AR Path="/59C6D672/57111DCA" Ref="R539"  Part="1" 
F 0 "R539" V 6920 5000 40  0000 C CNN
F 1 "240" V 7007 5001 40  0000 C CNN
F 2 "MyKiCadLibs-Footprints:SMD-1206" V 6930 5000 30  0001 C CNN
F 3 "" V 6920 5000 30  0000 C CNN
F 4 "250mW" V 7100 5000 40  0001 C CNN "Power"
F 5 "MELF0204 1% =>250mW or 1206 1% =>250mW" V 7245 5000 40  0001 C CNN "Description"
F 6 "1206" V 7175 5000 40  0001 C CNN "Size"
F 7 "1%" V 7325 5000 40  0001 C CNN "Tolerance"
	1    7000 5000
	0    -1   -1   0   
$EndComp
$Comp
L R R547
U 1 1 57111DD4
P 7000 5850
AR Path="/5633C57F/57111DD4" Ref="R547"  Part="1" 
AR Path="/59C6C1D7/57111DD4" Ref="R547"  Part="1" 
AR Path="/59C6D672/57111DD4" Ref="R547"  Part="1" 
F 0 "R547" V 6920 5850 40  0000 C CNN
F 1 "240" V 7007 5851 40  0000 C CNN
F 2 "MyKiCadLibs-Footprints:SMD-1206" V 6930 5850 30  0001 C CNN
F 3 "" V 6920 5850 30  0000 C CNN
F 4 "250mW" V 7100 5850 40  0001 C CNN "Power"
F 5 "MELF0204 1% =>250mW or 1206 1% =>250mW" V 7245 5850 40  0001 C CNN "Description"
F 6 "1206" V 7175 5850 40  0001 C CNN "Size"
F 7 "1%" V 7325 5850 40  0001 C CNN "Tolerance"
	1    7000 5850
	0    -1   1    0   
$EndComp
$Comp
L R R540
U 1 1 57111DDE
P 7650 5000
AR Path="/5633C57F/57111DDE" Ref="R540"  Part="1" 
AR Path="/59C6C1D7/57111DDE" Ref="R540"  Part="1" 
AR Path="/59C6D672/57111DDE" Ref="R540"  Part="1" 
F 0 "R540" V 7570 5000 40  0000 C CNN
F 1 "100" V 7657 5001 40  0000 C CNN
F 2 "MyKiCadLibs-Footprints:SMD-1206" V 7580 5000 30  0001 C CNN
F 3 "" V 7570 5000 30  0000 C CNN
F 4 "250mW" V 7750 5000 40  0001 C CNN "Power"
F 5 "MELF0204 1% =>250mW or 1206 1% =>250mW" V 7895 5000 40  0001 C CNN "Description"
F 6 "1206" V 7825 5000 40  0001 C CNN "Size"
F 7 "1%" V 7975 5000 40  0001 C CNN "Tolerance"
	1    7650 5000
	0    -1   -1   0   
$EndComp
$Comp
L R R548
U 1 1 57111DE8
P 7650 5850
AR Path="/5633C57F/57111DE8" Ref="R548"  Part="1" 
AR Path="/59C6C1D7/57111DE8" Ref="R548"  Part="1" 
AR Path="/59C6D672/57111DE8" Ref="R548"  Part="1" 
F 0 "R548" V 7570 5850 40  0000 C CNN
F 1 "100" V 7657 5851 40  0000 C CNN
F 2 "MyKiCadLibs-Footprints:SMD-1206" V 7580 5850 30  0001 C CNN
F 3 "" V 7570 5850 30  0000 C CNN
F 4 "250mW" V 7750 5850 40  0001 C CNN "Power"
F 5 "MELF0204 1% =>250mW or 1206 1% =>250mW" V 7895 5850 40  0001 C CNN "Description"
F 6 "1206" V 7825 5850 40  0001 C CNN "Size"
F 7 "1%" V 7975 5850 40  0001 C CNN "Tolerance"
	1    7650 5850
	0    -1   -1   0   
$EndComp
$Comp
L R R542
U 1 1 57111DF2
P 7750 5200
AR Path="/5633C57F/57111DF2" Ref="R542"  Part="1" 
AR Path="/59C6C1D7/57111DF2" Ref="R542"  Part="1" 
AR Path="/59C6D672/57111DF2" Ref="R542"  Part="1" 
F 0 "R542" V 7670 5200 40  0000 C CNN
F 1 "100k" V 7757 5201 40  0000 C CNN
F 2 "MyKiCadLibs-Footprints:SMD-1206" V 7680 5200 30  0001 C CNN
F 3 "" V 7670 5200 30  0000 C CNN
F 4 "250mW" V 7850 5200 40  0001 C CNN "Power"
F 5 "MELF0204 1% =>250mW or 1206 1% =>250mW" V 7995 5200 40  0001 C CNN "Description"
F 6 "1206" V 7925 5200 40  0001 C CNN "Size"
F 7 "1%" V 8075 5200 40  0001 C CNN "Tolerance"
	1    7750 5200
	0    1    -1   0   
$EndComp
$Comp
L R R544
U 1 1 57111DFC
P 7750 5700
AR Path="/5633C57F/57111DFC" Ref="R544"  Part="1" 
AR Path="/59C6C1D7/57111DFC" Ref="R544"  Part="1" 
AR Path="/59C6D672/57111DFC" Ref="R544"  Part="1" 
F 0 "R544" V 7670 5700 40  0000 C CNN
F 1 "100k" V 7757 5701 40  0000 C CNN
F 2 "MyKiCadLibs-Footprints:SMD-1206" V 7680 5700 30  0001 C CNN
F 3 "" V 7670 5700 30  0000 C CNN
F 4 "250mW" V 7850 5700 40  0001 C CNN "Power"
F 5 "MELF0204 1% =>250mW or 1206 1% =>250mW" V 7995 5700 40  0001 C CNN "Description"
F 6 "1206" V 7925 5700 40  0001 C CNN "Size"
F 7 "1%" V 8075 5700 40  0001 C CNN "Tolerance"
	1    7750 5700
	0    1    1    0   
$EndComp
$Comp
L C C508
U 1 1 57111E07
P 7300 5350
AR Path="/5633C57F/57111E07" Ref="C508"  Part="1" 
AR Path="/59C6C1D7/57111E07" Ref="C508"  Part="1" 
AR Path="/59C6D672/57111E07" Ref="C508"  Part="1" 
F 0 "C508" H 7300 5450 40  0000 L CNN
F 1 "2n7" H 7310 5265 40  0000 L CNN
F 2 "MyKiCadLibs-Footprints:SMD-0805" H 7338 5200 30  0001 C CNN
F 3 "" H 7300 5450 60  0000 C CNN
F 4 "50V" H 7315 5195 40  0000 L CNN "Voltage"
F 5 "C0G" H 7315 5125 40  0000 L CNN "Type"
F 6 "Ceramic capacitor" H 7300 5650 40  0001 L CNN "Description"
F 7 "5%" H 7370 4985 40  0001 C CNN "Tolerance"
F 8 "0805" H 7310 5055 40  0001 L CNN "Size"
	1    7300 5350
	-1   0    0    1   
$EndComp
$EndSCHEMATC
